…
Th `data` column that was reated now contains the subset datasets for each of the species.

You can see, that if we request that column, what we get is a list with three datasets.

NOTE: Please note how the variable `species` **does not** appear in these subsets, as it is its own column outside the subset data.


```r
nested_penguins$data
```

```
## [[1]]
## # A tibble: 152 x 7
##    island  bill_length_mm bill_depth_mm flipper_length_… body_mass_g sex    year
##    <fct>            <dbl>         <dbl>            <int>       <int> <fct> <int>
##  1 Torger…           39.1          18.7              181        3750 male   2007
##  2 Torger…           39.5          17.4              186        3800 fema…  2007
##  3 Torger…           40.3          18                195        3250 fema…  2007
##  4 Torger…           NA            NA                 NA          NA <NA>   2007
##  5 Torger…           36.7          19.3              193        3450 fema…  2007
##  6 Torger…           39.3          20.6              190        3650 male   2007
##  7 Torger…           38.9          17.8              181        3625 fema…  2007
##  8 Torger…           39.2          19.6              195        4675 male   2007
##  9 Torger…           34.1          18.1              193        3475 <NA>   2007
## 10 Torger…           42            20.2              190        4250 <NA>   2007
## # … with 142 more rows
## 
## [[2]]
## # A tibble: 124 x 7
##    island bill_length_mm bill_depth_mm flipper_length_mm body_mass_g sex    year
##    <fct>           <dbl>         <dbl>             <int>       <int> <fct> <int>
##  1 Biscoe           46.1          13.2               211        4500 fema…  2007
##  2 Biscoe           50            16.3               230        5700 male   2007
##  3 Biscoe           48.7          14.1               210        4450 fema…  2007
##  4 Biscoe           50            15.2               218        5700 male   2007
##  5 Biscoe           47.6          14.5               215        5400 male   2007
##  6 Biscoe           46.5          13.5               210        4550 fema…  2007
##  7 Biscoe           45.4          14.6               211        4800 fema…  2007
##  8 Biscoe           46.7          15.3               219        5200 male   2007
##  9 Biscoe           43.3          13.4               209        4400 fema…  2007
## 10 Biscoe           46.8          15.4               215        5150 male   2007
## # … with 114 more rows
## 
## [[3]]
## # A tibble: 68 x 7
##    island bill_length_mm bill_depth_mm flipper_length_mm body_mass_g sex    year
##    <fct>           <dbl>         <dbl>             <int>       <int> <fct> <int>
##  1 Dream            46.5          17.9               192        3500 fema…  2007
##  2 Dream            50            19.5               196        3900 male   2007
##  3 Dream            51.3          19.2               193        3650 male   2007
##  4 Dream            45.4          18.7               188        3525 fema…  2007
##  5 Dream            52.7          19.8               197        3725 male   2007
##  6 Dream            45.2          17.8               198        3950 fema…  2007
##  7 Dream            46.1          18.2               178        3250 fema…  2007
##  8 Dream            51.3          18.2               197        3750 male   2007
##  9 Dream            46            18.9               195        4150 fema…  2007
## 10 Dream            51.3          19.9               198        3700 male   2007
## # … with 58 more rows
```

Using the methos we already know of how to navigate data frames and lists, we can request one of those subsets if we want.


```r
nested_penguins$data[[1]]
```

```
## # A tibble: 152 x 7
##    island  bill_length_mm bill_depth_mm flipper_length_… body_mass_g sex    year
##    <fct>            <dbl>         <dbl>            <int>       <int> <fct> <int>
##  1 Torger…           39.1          18.7              181        3750 male   2007
##  2 Torger…           39.5          17.4              186        3800 fema…  2007
##  3 Torger…           40.3          18                195        3250 fema…  2007
##  4 Torger…           NA            NA                 NA          NA <NA>   2007
##  5 Torger…           36.7          19.3              193        3450 fema…  2007
##  6 Torger…           39.3          20.6              190        3650 male   2007
##  7 Torger…           38.9          17.8              181        3625 fema…  2007
##  8 Torger…           39.2          19.6              195        4675 male   2007
##  9 Torger…           34.1          18.1              193        3475 <NA>   2007
## 10 Torger…           42            20.2              190        4250 <NA>   2007
## # … with 142 more rows
```
…
```r
print(combined_data)
```

```
## # A tibble: 108 x 8
##    sample_id submission_date analysis_date_t… compound_1 compound_2 compound_3
##    <chr>     <date>          <chr>                 <dbl>      <dbl>      <dbl>
##  1 TR_001    2018-01-27      30/3/2018 15:30        8.90       9.24     18.2  
##  2 TR_002    2018-01-27      30/3/2018 15:30        7.98      10.0      18.7  
##  3 TR_003    2018-01-27      30/3/2018 15:30        8.66       8.92     19.3  
##  4 TR_004    2018-01-27      30/3/2018 15:30        4.52       4.01      8.88 
##  5 TR_005    2018-01-27      30/3/2018 15:30        4.84       4.18      8.59 
##  6 TR_006    2018-01-27      30/3/2018 15:30        4.45       3.69      8.97 
##  7 TR_007    2018-01-27      30/3/2018 15:30        1.54       2.18      0.217
##  8 TR_008    2018-01-27      30/3/2018 15:30        1.65       2.02      0.216
##  9 TR_009    2018-01-27      30/3/2018 15:30        1.59       2.08      0.218
## 10 TR_010    2018-02-27      30/3/2018 15:30        7.83      13.4      18.3  
## # … with 98 more rows, and 2 more variables: compound_4 <dbl>, compound_5 <dbl>
```
…
```r
print(combined_data)
```

```
## # A tibble: 108 x 9
##    sample_id submission_date analysis_date_t… compound_1 compound_2 compound_3
##    <chr>     <date>          <chr>                 <dbl>      <dbl>      <dbl>
##  1 TR_001    2018-01-27      30/3/2018 15:30        8.90       9.24     18.2  
##  2 TR_002    2018-01-27      30/3/2018 15:30        7.98      10.0      18.7  
##  3 TR_003    2018-01-27      30/3/2018 15:30        8.66       8.92     19.3  
##  4 TR_004    2018-01-27      30/3/2018 15:30        4.52       4.01      8.88 
##  5 TR_005    2018-01-27      30/3/2018 15:30        4.84       4.18      8.59 
##  6 TR_006    2018-01-27      30/3/2018 15:30        4.45       3.69      8.97 
##  7 TR_007    2018-01-27      30/3/2018 15:30        1.54       2.18      0.217
##  8 TR_008    2018-01-27      30/3/2018 15:30        1.65       2.02      0.216
##  9 TR_009    2018-01-27      30/3/2018 15:30        1.59       2.08      0.218
## 10 TR_010    2018-02-27      30/3/2018 15:30        7.83      13.4      18.3  
## # … with 98 more rows, and 3 more variables: compound_4 <dbl>,
## #   compound_5 <dbl>, source_file <chr>
```

Now we can use what we know of working with strings to get the batch numbe rinto its own column.


```r
combined_data %>% 
  mutate(batch = stringr::str_extract(source_file, "(?<=Batch_)[:digit:]{1}")) %>% # extract the date using regex
  select(-source_file) # we dont need it anymore
```

```
## # A tibble: 108 x 9
##    sample_id submission_date analysis_date_t… compound_1 compound_2 compound_3
##    <chr>     <date>          <chr>                 <dbl>      <dbl>      <dbl>
##  1 TR_001    2018-01-27      30/3/2018 15:30        8.90       9.24     18.2  
##  2 TR_002    2018-01-27      30/3/2018 15:30        7.98      10.0      18.7  
##  3 TR_003    2018-01-27      30/3/2018 15:30        8.66       8.92     19.3  
##  4 TR_004    2018-01-27      30/3/2018 15:30        4.52       4.01      8.88 
##  5 TR_005    2018-01-27      30/3/2018 15:30        4.84       4.18      8.59 
##  6 TR_006    2018-01-27      30/3/2018 15:30        4.45       3.69      8.97 
##  7 TR_007    2018-01-27      30/3/2018 15:30        1.54       2.18      0.217
##  8 TR_008    2018-01-27      30/3/2018 15:30        1.65       2.02      0.216
##  9 TR_009    2018-01-27      30/3/2018 15:30        1.59       2.08      0.218
## 10 TR_010    2018-02-27      30/3/2018 15:30        7.83      13.4      18.3  
## # … with 98 more rows, and 3 more variables: compound_4 <dbl>,
## #   compound_5 <dbl>, batch <chr>
```
