…
I have mentioned many times that this is not a stats course, however, not even i can ignore the fact that one of the main purpuses of R is to help you on statistical analysis. The goal of this section **is not** to teach you how to fit linear models to your data. In fact you should not learn stats from me (heck! i am not even going to test the assumptions!), but to show you how to handle the output of a model and extract the info you want from it. This skill can be applied to the output of pretty much anything in R and i am sure it will come handy.

# Some basic linear regression in R

For this part we are going to use the [Palmer Penguins](https://github.com/allisonhorst/palmerpenguins) dataset.

Let's take a look at the data (remember that it gets loaded with the `palmerpenguins` package, so you just need to call `penguins`)"


```r
penguins
```

```
## # A tibble: 344 x 8
##    species island bill_length_mm bill_depth_mm flipper_length_… body_mass_g
##    <fct>   <fct>           <dbl>         <dbl>            <int>       <int>
##  1 Adelie  Torge…           39.1          18.7              181        3750
##  2 Adelie  Torge…           39.5          17.4              186        3800
##  3 Adelie  Torge…           40.3          18                195        3250
##  4 Adelie  Torge…           NA            NA                 NA          NA
##  5 Adelie  Torge…           36.7          19.3              193        3450
##  6 Adelie  Torge…           39.3          20.6              190        3650
##  7 Adelie  Torge…           38.9          17.8              181        3625
##  8 Adelie  Torge…           39.2          19.6              195        4675
##  9 Adelie  Torge…           34.1          18.1              193        3475
## 10 Adelie  Torge…           42            20.2              190        4250
## # … with 334 more rows, and 2 more variables: sex <fct>, year <int>
```
…
## `broom::augment()` - augment your original dataset with a bunch of model-related outputs




```r
augment(model_1)
```

```
## # A tibble: 342 x 9
##    .rownames flipper_length_… body_mass_g .fitted .resid .std.resid    .hat
##    <chr>                <int>       <int>   <dbl>  <dbl>      <dbl>   <dbl>
##  1 1                      181        3750    194. -13.0      -1.89  0.00385
##  2 2                      186        3800    195.  -8.78     -1.27  0.00366
##  3 3                      195        3250    186.   8.62      1.25  0.00705
##  4 5                      193        3450    189.   3.57      0.518 0.00550
##  5 6                      190        3650    192.  -2.49     -0.360 0.00431
##  6 7                      181        3625    192. -11.1      -1.61  0.00444
##  7 8                      195        4675    208. -13.1      -1.91  0.00395
##  8 9                      193        3475    190.   3.19      0.462 0.00533
##  9 10                     190        4250    202. -11.7      -1.69  0.00293
## 10 11                     186        3300    187.  -1.14     -0.165 0.00663
## # … with 332 more rows, and 2 more variables: .sigma <dbl>, .cooksd <dbl>
```
…
